Ica-2-DAIE-MXW
…
#A-2 I got the days between and I have the mean code there but this question would not cooperate with me at all
AssetsProjects_df <- inner_join(projects_df, assets_df,
                                by = c("ProjectID"))
AssetsProjects_df <-AssetsProjects_df[,-c(5,6,7,8,9,10)]
AssetsProjects_df <- AssetsProjects_df %>% group_by(ProjectID) %>% mutate(EndDate = ymd(EndDate),StartDate = ymd(StartDate)) %>% mutate(diff=as.numeric(difftime(EndDate, StartDate, units = "days"))) %>% mutate(meanDays = mean(diff)) 

Warning: There was 1 warning in `mutate()`.
ℹ In argument: `EndDate = ymd(EndDate)`.
ℹ In group 4: `ProjectID = 104`.
Caused by warning:
!  10 failed to parse.

AssetsProjects_df

# A tibble: 42 × 7
# Groups:   ProjectID [4]
   ProjectID ProjectName  StartDate  EndDate    CreationDate  diff meanDays
       <int> <chr>        <date>     <date>     <chr>        <dbl>    <dbl>
 1       101 Galaxy Quest 2021-01-01 2021-09-30 2021-05-15     272      272
 2       101 Galaxy Quest 2021-01-01 2021-09-30 2021-03-15     272      272
 3       101 Galaxy Quest 2021-01-01 2021-09-30 2021-01-15     272      272
 4       101 Galaxy Quest 2021-01-01 2021-09-30 2021-05-15     272      272
 5       101 Galaxy Quest 2021-01-01 2021-09-30 2021-03-15     272      272
 6       101 Galaxy Quest 2021-01-01 2021-09-30 2021-01-15     272      272
 7       101 Galaxy Quest 2021-01-01 2021-09-30 2021-05-15     272      272
 8       101 Galaxy Quest 2021-01-01 2021-09-30 2021-03-15     272      272
 9       101 Galaxy Quest 2021-01-01 2021-09-30 2021-01-15     272      272
10       101 Galaxy Quest 2021-01-01 2021-09-30 2021-05-15     272      272
# ℹ 32 more rows
…
# A tibble: 2 × 7
  ProjectID ProjectName     StartDate  EndDate    Budget Status      CustomerID
      <int> <chr>           <chr>      <chr>       <int> <chr>            <int>
1       104 Urban Adventure 2022-10-01 2023-02-31 250000 Completed            4
2       105 Ocean Odyssey   2023-03-01 2024-06-30 300000 In Progress          5

#custom query 2: Select projectID and AssetID from asset table using the distinct function and the arrange which is dplyrs version of the SQL query DISTINCT and ORDER_BY Reference: https://sparkbyexamples.com/r-programming/dplyr-arrange-function-in-r/#:~:text=R%20arrange()%20Ascending%20Order,either%20ascending%20or%20descending%20order.
assets_df <- assets_df %>% distinct(assets_df, pick(contains("ID"))) %>% arrange(desc(AssetID)) %>% arrange(desc(ProjectID))
assets_df

# A tibble: 42 × 5
   AssetID ProjectID AssetName Type               CreationDate
     <int>     <int> <chr>     <chr>              <chr>       
 1      39       104 Asset 39  Character Model    2021-04-15  
 2      35       104 Asset 35  Character Model    2021-06-15  
 3      31       104 Asset 31  3D Model           2021-02-15  
 4      27       104 Asset 27  UI Element         2021-04-15  
 5      23       104 Asset 23  Environment Design 2021-06-15  
 6      19       104 Asset 19  Texture            2021-02-15  
 7      15       104 Asset 15  Animation          2021-04-15  
 8      11       104 Asset 11  Sound              2021-06-15  
 9       7       104 Asset 7   Texture            2021-02-15  
10       3       104 Asset 3   3D Model           2021-04-15  
# ℹ 32 more rows
…
